Captain America

Bat man

Bat man

Aqua Man

Captain Marvel

Peter Parker

The Hulk

Tony Stark
Nick Fury

Tony Stark

Tony Stark

Pepper Potts

Aqua Man

Peter Parker

Aqua Man

Peter Parker

Tony Stark

Aqua Man

Captain Marvel

